…
# 3 Survey estimates with spsurvey package

Estimates made using the local mean variance estimator

# 4 Summarize estimates and export

    ## # A tibble: 65 × 8
    ##    Type    Subpopulation nResp Estimate StdError MarginofError LCB95Pct UCB95Pct
    ##    <chr>   <chr>         <int>    <dbl>    <dbl>         <dbl>    <dbl>    <dbl>
    ##  1 Nation… National        984     8.05     0.53          1.03     7.02     9.09
    ##  2 LAKE_O… MAN_MADE        517     7.73     0.68          1.34     6.39     9.07
    ##  3 LAKE_O… NATURAL         467     8.62     0.8           1.56     7.06    10.2 
    ##  4 AREA_C… min_4           198     8.17     0.9           1.76     6.41     9.92
    ##  5 AREA_C… 10_20           174     7.6      0.24          0.48     7.13     8.08
    ##  6 AREA_C… 20_50           189     8.57     0.46          0.9      7.67     9.47
    ##  7 AREA_C… 4_10            158     7.64     0.58          1.13     6.51     8.78
    ##  8 AREA_C… 50_max          265     7.95     0.26          0.51     7.44     8.47
    ##  9 AG_ECO… Coastal Plai…   122     8.4      1.67          3.27     5.13    11.7 
    ## 10 AG_ECO… Northern App…    94     7.65     0.22          0.44     7.21     8.09
    ## # ℹ 55 more rows

``` r
write.csv(mean_dissolved, file = "./../inputData/populationEstimates/Survey_Ests_N20_dissolved.csv")
```

    ## # A tibble: 65 × 8
    ##    Type    Subpopulation nResp Estimate StdError MarginofError LCB95Pct UCB95Pct
    ##    <chr>   <chr>         <int>    <dbl>    <dbl>         <dbl>    <dbl>    <dbl>
    ##  1 Nation… National        984     1.1      0.07          0.14     0.95     1.24
    ##  2 LAKE_O… MAN_MADE        517     1.1      0.1           0.2      0.9      1.3 
    ##  3 LAKE_O… NATURAL         467     1.09     0.09          0.18     0.91     1.27
    ##  4 AREA_C… min_4           198     1.12     0.13          0.25     0.87     1.37
    ##  5 AREA_C… 10_20           174     1.02     0.03          0.06     0.96     1.08
    ##  6 AREA_C… 20_50           189     1.14     0.06          0.13     1.02     1.27
    ##  7 AREA_C… 4_10            158     1.02     0.07          0.13     0.89     1.15
    ##  8 AREA_C… 50_max          265     1.05     0.03          0.07     0.99     1.12
    ##  9 AG_ECO… Coastal Plai…   122     1.27     0.26          0.51     0.76     1.77
    ## 10 AG_ECO… Northern App…    94     0.97     0.03          0.05     0.91     1.02
    ## # ℹ 55 more rows
…
