NLA17 Dissolved Gas Spatial Autocorrelation
…
# Inspect sp object
dg.sp[ , c("site.id", "visit.no", "sample.source", "dissolved.co2", "dissolved.ch4", "dissolved.n2o")]

## class       : SpatialPointsDataFrame 
## features    : 1219 
## extent      : -136.7813, -67.69865, 26.07154, 59.56787  (xmin, xmax, ymin, ymax)
## coord. ref. : +proj=longlat +ellps=GRS80 +datum=NAD83 +no_defs +towgs84=0,0,0 
## variables   : 6
## # A tibble: 1,219 x 6
##    site.id visit.no sample.source dissolved.co2 dissolved.ch4 dissolved.n2o
##    <chr>      <int> <chr>                 <dbl>         <dbl>         <dbl>
##  1 NLA17_~        1 DG              0.0000552     0.000000668 0.00000000976
##  2 NLA17_~        1 DG              0.0000326     0.000000430 0.0000000089 
##  3 NLA17_~        1 DG              0.0000332     0.000000635 0.0000000126 
##  4 NLA17_~        1 DG              0.00000616    0.00000322  0.00000000685
##  5 NLA17_~        1 DG              0.0000566     0.000000744 0.00000000963
##  6 NLA17_~        1 DG              0.0000382     0.000000458 0.00000000938
##  7 NLA17_~        1 DG              0.0000622     0.000000594 0.0000000099 
##  8 NLA17_~        1 DG             -0.000000566   0.000000112 0.00000000768
##  9 NLA17_~        1 DG              0.0000249     0.00000126  0.00000000676
## 10 NLA17_~        1 DG              0.0000324     0.000000989 0.00000000942
## # ... with 1,209 more rows
…
