…
Likewise, lake size category was nested in state (which was nested in
ecoregion). That is, not every ecoregion:state in the population of
interest contained every size category (below).

``` r
load("C:/Users/rmartin/OneDrive - Environmental Protection Agency (EPA)/Documents/AE_Reservoirs/DissolvedGasNla/modelFiles/sframe.rda")

sframe %>%
  group_by(WSA9, state, size_cat) %>%
  summarise(n = n(), .groups = "drop") %>%
  spread(size_cat, n) %>%
  print()
```

    ## # A tibble: 110 x 7
    ##    WSA9  state min_4 `4_10` `10_20` `20_50` `50_max`
    ##    <fct> <fct> <int>  <int>   <int>   <int>    <int>
    ##  1 CPL   AL     5812   1078     253     119       64
    ##  2 CPL   AR     4178   1246     473     314      184
    ##  3 CPL   DE      380     72      42      28        7
    ##  4 CPL   FL    27613   6138    1918    1294      925
    ##  5 CPL   GA    20135   2814     481     238       93
    ##  6 CPL   IL       25     14      NA       2        3
    ##  7 CPL   KY      398     45      20       9       NA
    ##  8 CPL   LA    14429   3670    1163     699      636
    ##  9 CPL   MA      422    155      87      44       44
    ## 10 CPL   MD     1111    234      75      41       11
    ## # ... with 100 more rows
…
pframe <- sframe %>%
  mutate(obs = 1) %>%
  group_by(WSA9, state, size_cat) %>%
  summarise(n_lakes = sum(obs), .groups = "drop") %>%
  ungroup() %>%
  mutate(prop_cell = n_lakes/sum(n_lakes)) %>%
  mutate(type = "population") 

save(pframe, file = "C:/Users/rmartin/OneDrive - Environmental Protection Agency (EPA)/Documents/AE_Reservoirs/DissolvedGasNla/modelFiles/pframe.rda")

pframe %>%
  print()
```

    ## # A tibble: 536 x 6
    ##    WSA9  state size_cat n_lakes prop_cell type      
    ##    <fct> <fct> <ord>      <dbl>     <dbl> <chr>     
    ##  1 CPL   AL    min_4       5812  0.0125   population
    ##  2 CPL   AL    4_10        1078  0.00231  population
    ##  3 CPL   AL    10_20        253  0.000543 population
    ##  4 CPL   AL    20_50        119  0.000255 population
    ##  5 CPL   AL    50_max        64  0.000137 population
    ##  6 CPL   AR    min_4       4178  0.00897  population
    ##  7 CPL   AR    4_10        1246  0.00267  population
    ##  8 CPL   AR    10_20        473  0.00102  population
    ##  9 CPL   AR    20_50        314  0.000674 population
    ## 10 CPL   AR    50_max       184  0.000395 population
    ## # ... with 526 more rows
…
samp_props <- df_model %>%
  mutate(obs = 1) %>%
  group_by(WSA9, state, size_cat) %>%
  summarize(n_lakes = sum(obs), .groups = "drop") %>%
  ungroup() %>%
  mutate(prop_cell = round(n_lakes / sum(n_lakes), 7)) %>%
  mutate(type = "sample") 

save(samp_props, file = "C:/Users/rmartin/OneDrive - Environmental Protection Agency (EPA)/Documents/AE_Reservoirs/DissolvedGasNla/modelFiles/samp_props.rda")

samp_props %>%
  print()
```

    ## # A tibble: 352 x 6
    ##    WSA9  state size_cat n_lakes prop_cell type  
    ##    <fct> <fct> <ord>      <dbl>     <dbl> <chr> 
    ##  1 CPL   AL    min_4          1   0.00102 sample
    ##  2 CPL   AL    4_10           1   0.00102 sample
    ##  3 CPL   AL    10_20          1   0.00102 sample
    ##  4 CPL   AL    20_50          1   0.00102 sample
    ##  5 CPL   AL    50_max         1   0.00102 sample
    ##  6 CPL   AR    min_4          1   0.00102 sample
    ##  7 CPL   AR    4_10           1   0.00102 sample
    ##  8 CPL   AR    10_20          3   0.00305 sample
    ##  9 CPL   AR    20_50          1   0.00102 sample
    ## 10 CPL   AR    50_max         1   0.00102 sample
    ## # ... with 342 more rows
…
